Take-Home_Ex02 – ISS608-VAA
…
# 7. View the wide table
print(comparison)

# A tibble: 7,030 × 12
   Person           AllGenres Notable_Americana `Notable_Southern Gothic Rock`
   <chr>                <int>             <int>                          <int>
 1 Szymon Pyć              33                 0                             17
 2 Ping Tian               27                 0                              2
 3 Guiying Bai             26                 0                              1
 4 Kimberly Snyder         23                 0                              0
 5 Yang Zhao               23                 0                              0
 6 Jay Walters             22                 0                              9
 7 Matthew Hancock         22                 0                              0
 8 Urszula Stochmal        22                 0                             12
 9 Andrew Williams         21                 0                             10
10 Jing Kang               21                 0                              0
# ℹ 7,020 more rows
# ℹ 8 more variables: `Notable_Psychedelic Rock` <int>,
#   `Notable_Dream Pop` <int>, `Notable_Indie Rock` <int>,
#   `Notable_Doom Metal` <int>, `Notable_Indie Folk` <int>,
#   Notable_Synthwave <int>, `Notable_Oceanus Folk` <int>,
#   `Notable_Alternative Rock` <int>
…
  # ─── 10. Bar‐chart of top 10 nodes by betweenness ──────────────────────────
  centrality_tbl %>%
    slice_head(n = 10) %>%
    ggplot(aes(x = fct_reorder(NodeName, betweenness), y = betweenness, fill = NodeType)) +
    geom_col(show.legend = TRUE) +
    coord_flip() +
    labs(
      title = paste0("Top 10 Nodes by Betweenness (", max_hops, "-hop around ", center_person, ")"),
      x     = NULL,
      y     = "Betweenness (normalized)"
    ) +
    theme_minimal(base_size = 12)
}

# A tibble: 471 × 4
     idx betweenness NodeName                                           NodeType
   <int>       <dbl> <chr>                                              <chr>   
 1  7279      0.201  Requiem for a Fading Self                          Song    
 2  3363      0.176  Rising From the Shadows                            Song    
 3  8246      0.118  Tanah Kita Bangkit                                 Album   
 4 10660      0.110  Silent Hooves, Whispering Forest                   Song    
 5 10282      0.108  Timelines Converge                                 Song    
 6 13303      0.0851 Fair Exchange                                      Song    
 7 10343      0.0725 Carols of the Silent Night                         Song    
 8 14224      0.0717 Anchored Hearts                                    Song    
 9 10856      0.0694 Maria's Obeskrivna Minnen (Maria's Unwritten Memo… Song    
10  1717      0.0570 Kimberly Snyder                                    Person  
# ℹ 461 more rows
…
  # ─── 10. Bar‐chart of top 10 nodes by betweenness ──────────────────────────
  centrality_tbl %>%
    slice_head(n = 10) %>%
    ggplot(aes(x = fct_reorder(NodeName, betweenness), y = betweenness, fill = NodeType)) +
    geom_col(show.legend = TRUE) +
    coord_flip() +
    labs(
      title = paste0("Top 10 Nodes by Betweenness (", max_hops, "-hop around ", center_person, ")"),
      x     = NULL,
      y     = "Betweenness (normalized)"
    ) +
    theme_minimal(base_size = 12)
}

# A tibble: 404 × 4
     idx betweenness NodeName                NodeType
   <int>       <dbl> <chr>                   <chr>   
 1 15623      0.610  Whispers of Finality    Song    
 2   406      0.390  Leyla Graf-Gotthard     Person  
 3  8889      0.226  Bonds of Ducats         Song    
 4 12411      0.191  The Unfolding Identity  Song    
 5  3520      0.106  Wings of Castilla       Song    
 6  8216      0.0884 Retrograde Love         Album   
 7  2446      0.0675 Vulnerable Architecture Song    
 8 13559      0.0659 Personal Compass        Song    
 9  3757      0.0613 Come Closer             Song    
10 12824      0.0584 Rainfall's Whisper      Song    
# ℹ 394 more rows
…
  # ─── 10. Bar‐chart of top 10 nodes by betweenness ──────────────────────────
  centrality_tbl %>%
    slice_head(n = 10) %>%
    ggplot(aes(x = fct_reorder(NodeName, betweenness), y = betweenness, fill = NodeType)) +
    geom_col(show.legend = TRUE) +
    coord_flip() +
    labs(
      title = paste0("Top 10 Nodes by Betweenness (", max_hops, "-hop around ", center_person, ")"),
      x     = NULL,
      y     = "Betweenness (normalized)"
    ) +
    theme_minimal(base_size = 12)
}

# A tibble: 173 × 4
     idx betweenness NodeName                        NodeType
   <int>       <dbl> <chr>                           <chr>   
 1 14511      0.241  Pastoral Tiara                  Album   
 2   552      0.228  Szymon Pyć                      Person  
 3  2928      0.180  Sacred Invocation               Song    
 4  7272      0.150  Surrender to the Silence        Song    
 5  4168      0.148  The Interest Rises              Album   
 6  1295      0.143  Urszula Stochmal                Person  
 7  2943      0.131  Khwabon Ki Malika               Song    
 8 15324      0.0980 Roots of Belonging              Song    
 9 14498      0.0906 Decoding Silence                Song    
10  9062      0.0846 Silvered Leaves, Softly Singing Song    
# ℹ 163 more rows
…
# 8. Print the result
if (nrow(result_tbl) == 0) {
  message("No Oceanus Folk persons found with first‐release between 2025 and 2040.")
} else {
  print(result_tbl)
}

# A tibble: 127 × 2
   PersonName     first_oceanus_year
   <chr>                       <int>
 1 Ann Anderson                 2025
 2 Chao Wu                      2025
 3 Chelsea Harris               2025
 4 Fang Han                     2025
 5 Guiying Ye                   2025
 6 Isaiah Morales               2025
 7 Jie Zhong                    2025
 8 Jun Fu                       2025
 9 Jun Zou                      2025
10 Qiang Mo                     2025
# ℹ 117 more rows
…
# Create a tidy tibble of (label, group, betweenness)
betw_tbl <- tibble(
  node_id      = V(g_sub)$name,
  label        = V(g_sub)$label,
  group        = V(g_sub)$group,
  betweenness  = betw_vals
) %>%
  arrange(desc(betweenness))

# Print the full betweenness table
print(betw_tbl)

# A tibble: 293 × 4
   node_id label                   group        betweenness
   <chr>   <chr>                   <chr>              <dbl>
 1 17256   Sailor Shift            Person           0.0885 
 2 1953    Yang Wan                Person           0.0476 
 3 17276   Coral Beats             Album            0.0447 
 4 15856   Sacred Fragments        Song             0.0435 
 5 17261   Ivy Echos               MusicalGroup     0.0305 
 6 17341   Orla Seabloom           Person           0.0188 
 7 17356   Daniel O'Connell        Person           0.0118 
 8 17350   Beatrice Albright       Person           0.0110 
 9 11579   Whispers in the Unknown Song             0.0107 
10 17236   Genevieve Bell          Person           0.00927
# ℹ 283 more rows
…
